{
    "streams": [{
        "stream_alias": "funcionarios",
        "stream": "funcionarios",
        "tap_stream_id": "funcionarios",
        "schema": {
            "selected": true,
            "type": ["null", "object"],
            "properties": {
                "matricula": {
                    "type": ["null", "string"]
                },
                "pis": {
                    "type": ["null", "string"]
                },
                "nome": {
                    "type": ["null", "string"]
                },
                "codBarras": {
                    "type": ["null", "string"]
                },
                "biometria": {
                    "type": ["null", "string"]
                },
                "codInterno": {
                    "type": ["null", "string"]
                },
                "localizacoes": {
                    "type": ["null", "array", "string"],
                    "items": {
                        "type": ["null", "string"]
                    }
                },
                "dataAdmissao": {
                    "type": ["null", "string"]
                },
                "dataDemissao": {
                    "type": ["null", "string"]
                },
                "mifare": {
                    "type": ["null", "string"]
                },
                "cargo": {
                    "type": ["null", "string"]
                },
                "departamento": {
                    "type": ["null", "string"]
                },
                "cnpj": {
                    "type": ["null", "string"]
                },
                "cpf": {
                    "type": ["null", "string"]
                },
                "dataNascimento": {
                    "type": ["null", "string"]
                },
                "sexo": {
                    "type": ["null", "string"]
                },
                "email": {
                    "type": ["null", "string"]
                },
                "regimeTrabalho": {
                    "type": ["null", "string"]
                },
                "centroCusto": {
                    "type": ["null", "string"]
                },
                "rg": {
                    "type": ["null", "string"]
                },
                "bloqueado": {
                    "type": ["null", "string"]
                },
                "link_funcionario": {
                    "type": ["null", "string"]
                },
                "login_saml": {
                    "type": ["null", "string"]
                }
            }
        },
        "metadata": [{
            "metadata": {
                "selected": true,
                "table-key-properties": ["matricula"]
            },
            "breadcrumb": []
        }]
    }]
}