{
    "streams": [
      {
        "stream_alias": "facebook_page_insights",
        "stream": "page_insights",
        "tap_stream_id": "page_insights",
        "schema": {
          "selected": true,
          "type": [
            "null",
            "object"
          ],
          "properties": {
            "Clicks": {
              "type": [
                "integer"
              ]
            }
          }
        },
        "metadata": [
          {
            "metadata": {
              "selected": true
            },
            "breadcrumb": []
          }
        ]
      }
    ]
  }