{
    "streams": [{
        "stream_alias": "bitrix_deal_report",
        "stream": "crm.deal.list",
        "tap_stream_id": "crm.deal.list",
        "schema": {
            "selected": true,
            "type": [
                "null",
                "object"
            ],
            "properties": {
                "ID": {
                    "type": [
                        "string",
                        "null"
                    ]
                },
                "TITLE": {
                    "type": [
                        "string",
                        "null"
                    ]
                },
                "TYPE_ID": {
                    "type": [
                        "string",
                        "null"
                    ]
                },
                "STAGE_ID": {
                    "type": [
                        "string",
                        "null"
                    ]
                },
                "PROBABILITY": {
                    "type": [
                        "string",
                        "null"
                    ]
                },
                "CURRENCY_ID": {
                    "type": [
                        "string",
                        "null"
                    ]
                },
                "OPPORTUNITY": {
                    "type": [
                        "string",
                        "null"
                    ]
                },
                "TAX_VALUE": {
                    "type": [
                        "string",
                        "null"
                    ]
                },
                "LEAD_ID": {
                    "type": [
                        "string",
                        "null"
                    ]
                },
                "COMPANY_ID": {
                    "type": [
                        "string",
                        "null"
                    ]
                },
                "CONTACT_ID": {
                    "type": [
                        "string",
                        "null"
                    ]
                },
                "contacts": {
                    "type": "array",
                    "items": {
                        "type": "object",
                        "properties": {
                            "CONTACT_ID": {
                                "type": [
                                    "string",
                                    "null"
                                ]
                            },
                            "SORT": {
                                "type": [
                                    "string",
                                    "null"
                                ]
                            },
                            "ROLE_ID": {
                                "type": [
                                    "string",
                                    "null"
                                ]
                            },
                            "IS_PRIMARY": {
                                "type": [
                                    "string",
                                    "null"
                                ]
                            }
                        }
                    }
                },
                "QUOTE_ID": {
                    "type": [
                        "string",
                        "null"
                    ]
                },
                "BEGINDATE": {
                    "type": [
                        "string",
                        "null"
                    ]
                },
                "CLOSEDATE": {
                    "type": [
                        "string",
                        "null"
                    ]
                },
                "ASSIGNED_BY_ID": {
                    "type": [
                        "string",
                        "null"
                    ]
                },
                "CREATED_BY_ID": {
                    "type": [
                        "string",
                        "null"
                    ]
                },
                "MODIFY_BY_ID": {
                    "type": [
                        "string",
                        "null"
                    ]
                },
                "DATE_CREATE": {
                    "type": [
                        "string",
                        "null"
                    ]
                },
                "DATE_MODIFY": {
                    "type": [
                        "string",
                        "null"
                    ]
                },
                "OPENED": {
                    "type": [
                        "string",
                        "null"
                    ]
                },
                "CLOSED": {
                    "type": [
                        "string",
                        "null"
                    ]
                },
                "COMMENTS": {
                    "type": [
                        "string",
                        "null"
                    ]
                },
                "ADDITIONAL_INFO": {
                    "type": [
                        "string",
                        "null"
                    ]
                },
                "LOCATION_ID": {
                    "type": [
                        "string",
                        "null"
                    ]
                },
                "CATEGORY_ID": {
                    "type": [
                        "string",
                        "null"
                    ]
                },
                "STAGE_SEMANTIC_ID": {
                    "type": [
                        "string",
                        "null"
                    ]
                },
                "IS_NEW": {
                    "type": [
                        "string",
                        "null"
                    ]
                },
                "IS_RECURRING": {
                    "type": [
                        "string",
                        "null"
                    ]
                },
                "IS_RETURN_CUSTOMER": {
                    "type": [
                        "string",
                        "null"
                    ]
                },
                "IS_REPEATED_APPROACH": {
                    "type": [
                        "string",
                        "null"
                    ]
                },
                "SOURCE_ID": {
                    "type": [
                        "string",
                        "null"
                    ]
                },
                "SOURCE_DESCRIPTION": {
                    "type": [
                        "string",
                        "null"
                    ]
                },
                "ORIGINATOR_ID": {
                    "type": [
                        "string",
                        "null"
                    ]
                },
                "ORIGIN_ID": {
                    "type": [
                        "string",
                        "null"
                    ]
                },
                "UTM_SOURCE": {
                    "type": [
                        "string",
                        "null"
                    ]
                },
                "UTM_MEDIUM": {
                    "type": [
                        "string",
                        "null"
                    ]
                },
                "UTM_CAMPAIGN": {
                    "type": [
                        "string",
                        "null"
                    ]
                },
                "UTM_CONTENT": {
                    "type": [
                        "string",
                        "null"
                    ]
                },
                "UTM_TERM": {
                    "type": [
                        "string",
                        "null"
                    ]
                },
                "UF_CRM_5C6D511978E6E": {
                    "type": [
                        "string",
                        "null"
                    ]
                },
                "UF_CRM_5C782B23B6106": {
                    "type": [
                        "string",
                        "null"
                    ]
                },
                "UF_CRM_5CFAA42809541": {
                    "type": [
                        "string",
                        "null"
                    ]
                },
                "UF_CRM_5C77DFD9B5629": {
                    "type": [
                            "string",
                            "null"
                    ]
                },
                "UF_CRM_5C6D511934A76": {
                    "type": [
                        "string",
                        "null"
                    ]
                },
                "UF_CRM_5C7004A10252B": {
                    "type": [
                        "string",
                        "null"
                    ]
                },
                "UF_CRM_5DBA6CB06F90E": {
                    "type": [
                        "string",
                        "null"
                    ]
                },
                "UF_CRM_5D7FFA17004B8": {
                    "type": [
                        "string",
                        "null"
                    ]
                },
                "UF_CRM_1556124156": {
                    "type": [
                        "string",
                        "null"
                    ]
                },
                "UF_CRM_1572038348": {
                    "type": [
                        "string",
                        "null"
                    ]
                },
                "UF_CRM_5C77DFD9C66B6": {
                    "type": [
                        "string",
                        "null"
                    ]
                }, 
                "UF_CRM_5DF824278FBF3": {
                    "type": [
                        "string",
                        "null"
                    ]
                },
                "UF_CRM_5E27A5D48F07C": {
                    "type": [
                        "string",
                        "null"
                    ]
                },
                "UF_CRM_5DED6BF8BECA2": {
                    "type": [
                        "string",
                        "null"
                    ]
                },
                "UF_CRM_1575843404": {
                    "type": [
                        "string",
                        "null"
                    ]
                },
                "UF_CRM_1588616462": {
                    "type": [
                        "string",
                        "null"
                    ]
                }, 
                "UF_CRM_1588616356": {
                    "type": [
                        "string",
                        "null"
                    ]
                },
                "UF_CRM_1588616385": {
                    "type": [
                        "string",
                        "null"
                    ]
                },
                "UF_CRM_1588616418": {
                    "type": [
                        "string",
                        "null"
                    ]
                },
                "UF_CRM_1588616510": {
                    "type": [
                        "string",
                        "null"
                    ]
                },
                "UF_CRM_1588616545": {
                    "type": [
                        "string",
                        "null"
                    ]
                }, 
                "UF_CRM_1588616575": {
                    "type": [
                        "string",
                        "null"
                    ]
                },
                "UF_CRM_1588616706": {
                    "type": [
                        "string",
                        "null"
                    ]
                },
                "UF_CRM_1588616734": {
                    "type": [
                        "string",
                        "null"
                    ]
                },
                "UF_CRM_1590701266": {
                    "type": [
                        "string",
                        "null"
                    ]
                },
                "UF_CRM_1590701160": {
                    "type": [
                        "string",
                        "null"
                    ]
                },
                "UF_CRM_1590704137": {
                    "type": [
                        "string",
                        "null"
                    ]
                },
                "UF_CRM_1590704172": {
                    "type": [
                        "string",
                        "null"
                    ]
                },
                "UF_CRM_1590704256": {
                    "type": [
                        "string",
                        "null"
                    ]
                },
                "UF_CRM_1590704300": {
                    "type": [
                        "string",
                        "null"
                    ]
                },
                "UF_CRM_1590704323": {
                    "type": [
                        "string",
                        "null"
                    ]
                },
                "UF_CRM_1590704353": {
                    "type": [
                        "string",
                        "null"
                    ]
                },
                "UF_CRM_1590704399": {
                    "type": [
                        "string",
                        "null"
                    ]
                },
                "UF_CRM_1590704433": {
                    "type": [
                        "string",
                        "null"
                    ]
                },
                "UF_CRM_1590704528": {
                    "type": [
                        "string",
                        "null"
                    ]
                },
                "UF_CRM_1590704602": {
                    "type": [
                        "string",
                        "null"
                    ]
                },
                "UF_CRM_1590704630": {
                    "type": [
                        "string",
                        "null"
                    ]
                },
                "UF_CRM_1590704667": {
                    "type": [
                        "string",
                        "null"
                    ]
                },
                "UF_CRM_1590704716": {
                    "type": [
                        "string",
                        "null"
                    ]
                },
                "UF_CRM_1590704793": {
                    "type": [
                        "string",
                        "null"
                    ]
                },
                "UF_CRM_1590704824": {
                    "type": [
                        "string",
                        "null"
                    ]
                }
                
            }
        },
        "metadata": [{
            "metadata": {
                "selected": true,
                "table-key-properties": [
                    "ID",
                    "DATE_CREATE",
                    "DATE_MODIFY"
                ]
            },
            "breadcrumb": []
        }]
    }]
}