{
  "streams": [
    {
      "stream_alias": "produtos",
      "stream": "produtos",
      "tap_stream_id": "produtos",
      "schema": {
        "selected": true,
        "type": "object",
        "required": [],
        "properties": {
          "id": {
            "type": [
              "string",
              "null"
            ]
          },
          "codigo": {
            "type": [
              "string",
              "null"
            ]
          },
          "descricao": {
            "type": [
              "string",
              "null"
            ]
          },
          "tipo": {
            "type": [
              "string",
              "null"
            ]
          },
          "situacao": {
            "type": [
              "string",
              "null"
            ]
          },
          "unidade": {
            "type": [
              "string",
              "null"
            ]
          },
          "preco": {
            "type": [
              "string",
              "null"
            ]
          },
          "precocusto": {
            "type": [
              "string",
              "null"
            ]
          },
          "descricaocurta": {
            "type": [
              "string",
              "null"
            ]
          },
          "descricaocomplementar": {
            "type": [
              "string",
              "null"
            ]
          },
          "datainclusao": {
            "type": [
              "string",
              "null"
            ]
          },
          "dataalteracao": {
            "type": [
              "string",
              "null"
            ]
          },
          "imagethumbnail": {
            "type": [
              "string",
              "null"
            ]
          },
          "urlvideo": {
            "type": [
              "string",
              "null"
            ]
          },
          "nomefornecedor": {
            "type": [
              "string",
              "null"
            ]
          },
          "codigofabricante": {
            "type": [
              "string",
              "null"
            ]
          },
          "marca": {
            "type": [
              "string",
              "null"
            ]
          },
          "class_fiscal": {
            "type": [
              "string",
              "null"
            ]
          },
          "cest": {
            "type": [
              "string",
              "null"
            ]
          },
          "origem": {
            "type": [
              "string",
              "null"
            ]
          },
          "idgrupoproduto": {
            "type": [
              "string",
              "null"
            ]
          },
          "linkexterno": {
            "type": [
              "string",
              "null"
            ]
          },
          "observacoes": {
            "type": [
              "string",
              "null"
            ]
          },
          "grupoproduto": {
            "type": [
              "string",
              "null"
            ]
          },
          "garantia": {
            "type": [
              "string",
              "null"
            ]
          },
          "descricaofornecedor": {
            "type": [
              "string",
              "null"
            ]
          },
          "idfabricante": {
            "type": [
              "string",
              "null"
            ]
          },
          "categoria": {
            "type": "object",
            "required": [],
            "properties": {
              "id": {
                "type": [
                  "string",
                  "null"
                ]
              },
              "descricao": {
                "type": [
                  "string",
                  "null"
                ]
              }
            }
          },
          "pesoliq": {
            "type": [
              "string",
              "null"
            ]
          },
          "pesobruto": {
            "type": [
              "string",
              "null"
            ]
          },
          "estoqueminimo": {
            "type": [
              "string",
              "null"
            ]
          },
          "estoquemaximo": {
            "type": [
              "string",
              "null"
            ]
          },
          "gtin": {
            "type": [
              "string",
              "null"
            ]
          },
          "gtinembalagem": {
            "type": [
              "string",
              "null"
            ]
          },
          "larguraproduto": {
            "type": [
              "string",
              "null"
            ]
          },
          "alturaproduto": {
            "type": [
              "string",
              "null"
            ]
          },
          "profundidadeproduto": {
            "type": [
              "string",
              "null"
            ]
          },
          "unidademedida": {
            "type": [
              "string",
              "null"
            ]
          },
          "itensporcaixa": {
            "type": [
              "number",
              "null"
            ]
          },
          "volumes": {
            "type": [
              "number",
              "null"
            ]
          },
          "localizacao": {
            "type": [
              "string",
              "null"
            ]
          },
          "crossdocking": {
            "type": [
              "string",
              "null"
            ]
          },
          "condicao": {
            "type": [
              "string",
              "null"
            ]
          },
          "fretegratis": {
            "type": [
              "string",
              "null"
            ]
          },
          "producao": {
            "type": [
              "string",
              "null"
            ]
          },
          "datavalidade": {
            "type": [
              "string",
              "null"
            ]
          },
          "spedtipoitem": {
            "type": [
              "string",
              "null"
            ]
          },
          "extract_at": {
            "type": [
              "null",
              "string"
            ]
          }
        }
      },
      "metadata": [
        {
          "metadata": {
            "selected": true,
            "table-key-properties": [
              "id",
              "situacao",
              "dataalteracao"
            ]
          },
          "breadcrumb": []
        }
      ]
    }
  ]
}