{
  "streams": [
    {
      "stream_alias": "notasfiscais",
      "stream": "notasfiscais",
      "tap_stream_id": "notasfiscais",
      "schema": {
        "selected": true,
        "type": "object",
        "required": [],
        "properties": {
          "serie": {
            "type": [
              "string",
              "null"
            ]
          },
          "numero": {
            "type": [
              "string",
              "null"
            ]
          },
          "loja": {
            "type": [
              "string",
              "null"
            ]
          },
          "numeropedidoloja": {
            "type": [
              "string",
              "null"
            ]
          },
          "tipo": {
            "type": [
              "string",
              "null"
            ]
          },
          "situacao": {
            "type": [
              "string",
              "null"
            ]
          },
          "cliente": {
            "type": "object",
            "required": [],
            "properties": {
              "nome": {
                "type": [
                  "string",
                  "null"
                ]
              },
              "cnpj": {
                "type": [
                  "string",
                  "null"
                ]
              },
              "ie": {
                "type": [
                  "string",
                  "null"
                ]
              },
              "rg": {
                "type": [
                  "string",
                  "null"
                ]
              },
              "endereco": {
                "type": [
                  "string",
                  "null"
                ]
              },
              "numero": {
                "type": [
                  "string",
                  "null"
                ]
              },
              "complemento": {
                "type": [
                  "string",
                  "null"
                ]
              },
              "cidade": {
                "type": [
                  "string",
                  "null"
                ]
              },
              "bairro": {
                "type": [
                  "string",
                  "null"
                ]
              },
              "cep": {
                "type": [
                  "string",
                  "null"
                ]
              },
              "uf": {
                "type": [
                  "string",
                  "null"
                ]
              },
              "email": {
                "type": [
                  "string",
                  "null"
                ]
              },
              "fone": {
                "type": [
                  "string",
                  "null"
                ]
              }
            }
          },
          "contato": {
            "type": [
              "string",
              "null"
            ]
          },
          "cnpj": {
            "type": [
              "string",
              "null"
            ]
          },
          "vendedor": {
            "type": [
              "string",
              "null"
            ]
          },
          "dataemissao": {
            "type": [
              "string",
              "null"
            ]
          },
          "valornota": {
            "type": [
              "string",
              "null"
            ]
          },
          "chaveacesso": {
            "type": [
              "string",
              "null"
            ]
          },
          "xml": {
            "type": [
              "string",
              "null"
            ]
          },
          "linkdanfe": {
            "type": [
              "string",
              "null"
            ]
          },
          "codigosrastreamento": {
            "type": [
              "object",
              "null",
              "array"
            ],
            "required": [],
            "properties": {
              "codigorastreamento": {
                "type": [
                  "string",
                  "null"
                ]
              }
            }
          },
          "cfops": {
            "type": "array",
            "items": {
              "type": [
                "string",
                "null"
              ]
            }
          },
          "tipointegracao": {
            "type": [
              "string",
              "null"
            ]
          },
          "transporte": {
            "type": "object",
            "required": [],
            "properties": {
              "transportadora": {
                "type": [
                  "string",
                  "null"
                ]
              },
              "cnpj": {
                "type": [
                  "string",
                  "null"
                ]
              },
              "tipo_frete": {
                "type": [
                  "string",
                  "null"
                ]
              },
              "enderecoentrega": {
                "type": "object",
                "required": [],
                "properties": {
                  "nome": {
                    "type": [
                      "string",
                      "null"
                    ]
                  },
                  "endereco": {
                    "type": [
                      "string",
                      "null"
                    ]
                  },
                  "numero": {
                    "type": [
                      "string",
                      "null"
                    ]
                  },
                  "complemento": {
                    "type": [
                      "string",
                      "null"
                    ]
                  },
                  "cidade": {
                    "type": [
                      "string",
                      "null"
                    ]
                  },
                  "bairro": {
                    "type": [
                      "string",
                      "null"
                    ]
                  },
                  "cep": {
                    "type": [
                      "string",
                      "null"
                    ]
                  },
                  "uf": {
                    "type": [
                      "string",
                      "null"
                    ]
                  }
                }
              },
              "volumes": {
                "type": "array",
                "items": {
                  "type": "object",
                  "required": [],
                  "properties": {
                    "volume": {
                      "type": "object",
                      "required": [],
                      "properties": {
                        "id": {
                          "type": [
                            "string",
                            "null"
                          ]
                        },
                        "idservico": {
                          "type": [
                            "string",
                            "null"
                          ]
                        },
                        "servico": {
                          "type": [
                            "string",
                            "null"
                          ]
                        },
                        "codigoservico": {
                          "type": [
                            "string",
                            "null"
                          ]
                        },
                        "codigorastreamento": {
                          "type": [
                            "string",
                            "null"
                          ]
                        },
                        "valorfreteprevisto": {
                          "type": [
                            "string",
                            "null"
                          ]
                        },
                        "remessa": {
                          "type": "object",
                          "required": [],
                          "properties": {
                            "numero": {
                              "type": [
                                "string",
                                "null"
                              ]
                            },
                            "datacriacao": {
                              "type": [
                                "string",
                                "null"
                              ]
                            }
                          }
                        },
                        "datasaida": {
                          "type": [
                            "string",
                            "null"
                          ]
                        },
                        "prazoentregaprevisto": {
                          "type": [
                            "string",
                            "null"
                          ]
                        },
                        "valordeclarado": {
                          "type": [
                            "string",
                            "null"
                          ]
                        },
                        "avisorecebimento": {
                          "type": "boolean"
                        },
                        "maopropria": {
                          "type": "boolean"
                        },
                        "dimensoes": {
                          "type": "object",
                          "required": [],
                          "properties": {
                            "peso": {
                              "type": [
                                "string",
                                "null"
                              ]
                            },
                            "altura": {
                              "type": [
                                "string",
                                "null"
                              ]
                            },
                            "largura": {
                              "type": [
                                "string",
                                "null"
                              ]
                            },
                            "comprimento": {
                              "type": [
                                "string",
                                "null"
                              ]
                            },
                            "diametro": {
                              "type": [
                                "string",
                                "null"
                              ]
                            }
                          }
                        },
                        "urlrastreamento": {
                          "type": [
                            "string",
                            "null"
                          ]
                        }
                      }
                    }
                  }
                }
              },
              "servico_correios": {
                "type": [
                  "string",
                  "null"
                ]
              }
            }
          },
          "extract_at": {
            "type": [
              "null",
              "string"
            ]
          }
        }
      },
      "metadata": [
        {
          "metadata": {
            "selected": true,
            "table-key-properties": [
              "numero",
              "situacao"
            ]
          },
          "breadcrumb": []
        }
      ]
    }
  ]
}