{
    "streams": [
        {
            "stream_alias": "contaspagar",
            "stream": "contaspagar",
            "tap_stream_id": "contaspagar",
            "schema": {
                "selected": true,
                "type": "object",
                "required": [],
                "properties": {
                    "id": {
                        "type": [
                            "string",
                            "null"
                        ]
                    },
                    "situacao": {
                        "type": [
                            "string",
                            "null"
                        ]
                    },
                    "dataemissao": {
                        "type": [
                            "string",
                            "null"
                        ]
                    },
                    "vencimentooriginal": {
                        "type": [
                            "string",
                            "null"
                        ]
                    },
                    "vencimento": {
                        "type": [
                            "string",
                            "null"
                        ]
                    },
                    "competencia": {
                        "type": [
                            "string",
                            "null"
                        ]
                    },
                    "nrodocumento": {
                        "type": [
                            "string",
                            "null"
                        ]
                    },
                    "valor": {
                        "type": [
                            "string",
                            "null"
                        ]
                    },
                    "saldo": {
                        "type": [
                            "string",
                            "null"
                        ]
                    },
                    "historico": {
                        "type": [
                            "string",
                            "null"
                        ]
                    },
                    "categoria": {
                        "type": [
                            "string",
                            "null"
                        ]
                    },
                    "portador": {
                        "type": [
                            "string",
                            "null"
                        ]
                    },
                    "pagamento": {
                        "type": [
                            "object",
                            "null",
                            "array"
                        ],
                        "required": [],
                        "properties": {
                            "totalPago": {
                                "type": [
                                    "string",
                                    "null"
                                ]
                            },
                            "totaljuro": {
                                "type": [
                                    "string",
                                    "null"
                                ]
                            },
                            "totaldesconto": {
                                "type": [
                                    "string",
                                    "null"
                                ]
                            },
                            "totalacrescimo": {
                                "type": [
                                    "string",
                                    "null"
                                ]
                            },
                            "totaltarifa": {
                                "type": [
                                    "string",
                                    "null"
                                ]
                            },
                            "data": {
                                "type": [
                                    "string",
                                    "null"
                                ]
                            },
                            "borderos": {
                                "type": "array",
                                "items": {
                                    "type": "object",
                                    "required": [],
                                    "properties": {
                                        "bordero": {
                                            "type": "object",
                                            "required": [],
                                            "properties": {
                                                "id": {
                                                    "type": [
                                                        "string",
                                                        "null"
                                                    ]
                                                },
                                                "conta": {
                                                    "type": [
                                                        "string",
                                                        "null"
                                                    ]
                                                },
                                                "datapagamento": {
                                                    "type": [
                                                        "string",
                                                        "null"
                                                    ]
                                                },
                                                "valorpago": {
                                                    "type": [
                                                        "string",
                                                        "null"
                                                    ]
                                                },
                                                "valorjuro": {
                                                    "type": [
                                                        "string",
                                                        "null"
                                                    ]
                                                },
                                                "valordesconto": {
                                                    "type": [
                                                        "string",
                                                        "null"
                                                    ]
                                                },
                                                "valoracrescimo": {
                                                    "type": [
                                                        "string",
                                                        "null"
                                                    ]
                                                },
                                                "valortarifa": {
                                                    "type": [
                                                        "string",
                                                        "null"
                                                    ]
                                                }
                                            }
                                        }
                                    }
                                }
                            }
                        }
                    },
                    "ocorrencia": {
                        "type": [
                            "string",
                            "null"
                        ]
                    },
                    "fornecedor": {
                        "type": "object",
                        "required": [],
                        "properties": {
                            "idcontato": {
                                "type": [
                                    "string",
                                    "null"
                                ]
                            },
                            "nome": {
                                "type": [
                                    "string",
                                    "null"
                                ]
                            },
                            "cpf": {
                                "type": [
                                    "string",
                                    "null"
                                ]
                            },
                            "tipopessoa": {
                                "type": [
                                    "string",
                                    "null"
                                ]
                            },
                            "rg": {
                                "type": [
                                    "string",
                                    "null"
                                ]
                            },
                            "endereco": {
                                "type": [
                                    "string",
                                    "null"
                                ]
                            },
                            "numero": {
                                "type": [
                                    "string",
                                    "null"
                                ]
                            },
                            "complemento": {
                                "type": [
                                    "string",
                                    "null"
                                ]
                            },
                            "cidade": {
                                "type": [
                                    "string",
                                    "null"
                                ]
                            },
                            "bairro": {
                                "type": [
                                    "string",
                                    "null"
                                ]
                            },
                            "cep": {
                                "type": [
                                    "string",
                                    "null"
                                ]
                            },
                            "uf": {
                                "type": [
                                    "string",
                                    "null"
                                ]
                            },
                            "email": {
                                "type": [
                                    "string",
                                    "null"
                                ]
                            },
                            "fone": {
                                "type": [
                                    "string",
                                    "null"
                                ]
                            },
                            "celular": {
                                "type": [
                                    "string",
                                    "null"
                                ]
                            }
                        }
                    },
                    "extract_at": {
                        "type": [
                            "null",
                            "string"
                        ]
                    }
                }
            },
            "metadata": [
                {
                    "metadata": {
                        "selected": true,
                        "table-key-properties": [
                            "id",
                            "situacao",
                            "vencimento"
                        ]
                    },
                    "breadcrumb": []
                }
            ]
        }
    ]
}