{
    "streams": [
        {
            "stream": "leads_sheet",
            "tap_stream_id": "leads_sheet",
            "stream_alias": "indicium_leads_sheet",
            "schema": {
                "selected": true,
                "type": [
                    "null",
                    "object"
                ],
                "properties": {
                    "priority": {
                        "type": [
                            "string"
                        ]
                    },
                    "first_call_date": {
                        "type": [
                            "string"
                        ]
                    },
                    "total_calls": {
                        "type": [
                            "string"
                        ]
                    },
                    "result": {
                        "type": [
                            "string"
                        ]
                    },
                    "comments": {
                        "type": [
                            "string"
                        ]
                    },
                    "emails_opened": {
                        "type": [
                            "string"
                        ]
                    },
                    "name": {
                        "type": [
                            "string"
                        ]
                    },
                    "fist_name": {
                        "type": [
                            "string"
                        ]
                    },
                    "last_name": {
                        "type": [
                            "string"
                        ]
                    },
                    "city": {
                        "type": [
                            "string"
                        ]
                    },
                    "region": {
                        "type": [
                            "string"
                        ]
                    },
                    "email": {
                        "type": [
                            "string"
                        ]
                    },
                    "phone1": {
                        "type": [
                            "string"
                        ]
                    },
                    "phone2": {
                        "type": [
                            "string"
                        ]
                    },
                    "phone3": {
                        "type": [
                            "string"
                        ]
                    },
                    "phone4": {
                        "type": [
                            "string"
                        ]
                    },
                    "cellphone1": {
                        "type": [
                            "string"
                        ]
                    },
                    "cellphone2": {
                        "type": [
                            "string"
                        ]
                    },
                    "cellphone3": {
                        "type": [
                            "string"
                        ]
                    },
                    "cellphone4": {
                        "type": [
                            "string"
                        ]
                    }
                }
            },
            "metadata": [
                {
                    "metadata": {
                        "selected": true
                    },
                    "breadcrumb": []
                }
            ]
        }
    ]
}