{
    "streams": [
        {
            "stream": "google-searchconsole-url-report",
            "tap_stream_id": "google-searchconsole-url-report",
            "schema": {
                "type": [
                    "null",
                    "object"
                ],
                "additionalProperties": false,
                "properties": {
                    "date": {
                        "type": [
                            "string"
                        ]
                    },
                    "query": {
                        "type": [
                            "string"
                        ]
                    },
                    "clicks": {
                        "type": [
                            "string"
                        ]
                    },
                    "impressions": {
                        "type": [
                            "string"
                        ]
                    },
                    "ctr": {
                        "type": [
                            "string"
                        ]
                    },
                    "position": {
                        "type": [
                            "string"
                        ]
                    }
                }
            },
            "metadata": [
                {
                    "metadata": {
                        "selected": true,
                        "table-key-properties": ["date", "query"]
                    },
                    "breadcrumb": []
                },
                {
                    "metadata": {
                        "dimension": true
                    },
                    "breadcrumb": [
                        "properties",
                        "date"
                    ]
                },
                {
                    "metadata": {
                        "dimension": true
                    },
                    "breadcrumb": [
                        "properties",
                        "query"
                    ]
                }
            ],
            "key_properties": []
        }
    ]
}