{
  "streams": [
    {
      "tap_stream_id": "iteracoes",
      "key_properties": ["id","dataCadastro"],
      "schema": {
        "properties": {
          "id": {
            "type": [
              "null",
              "string"
            ]
          },
          "segmento": {
            "type": [
              "null",
              "number"
            ]
          },
          "dataCadastro": {
            "type": [
              "null",
              "string"
            ]
          },
          "origem": {
            "type": [
              "null",
              "number"
            ]
          },
          "idImovel": {
            "type": [
              "null",
              "number"
            ]
          }
        },
        "selected": true,
        "type": [
          "null",
          "object"
        ],
        "additionalProperties": false
      },
      "stream": "iteracoes",
      "metadata": []
    }
  ]
}