{
    "streams": [{
            "stream_alias": "moskit_deals",
            "stream": "moskit_deals",
            "tap_stream_id": "moskit_deals",
            "schema": {
                "selected": true,
                "type": ["null", "object"],
                "properties": {
                    "id": {
                        "type": ["null", "string"]
                    },
                    "name": {
                        "type": ["null", "string"]
                    },
                    "price": {
                        "type": ["null", "string"]
                    },
                    "previsionCloseDate": {
                        "type": ["null", "string"]
                    },
                    "dateCreated": {
                        "type": ["null", "string"]
                    },
                    "createdBy": {
                        "type": ["null", "object"],
                        "properties": {
                            "id": {
                                "type": ["null", "string"]
                            },
                            "entity": {
                                "type": ["null", "string"]
                            },
                            "name": {
                                "type": ["null", "string"]
                            }
                        }
                    },
                    "responsible": {
                        "type": ["null", "object"],
                        "properties": {
                            "id": {
                                "type": ["null", "string"]
                            },
                            "entity": {
                                "type": ["null", "string"]
                            },
                            "name": {
                                "type": ["null", "string"]
                            }
                        }
                    },
                    "stage": {
                        "type": ["null", "object"],
                        "properties": {
                            "id": {
                                "type": ["null", "string"]
                            },
                            "entity": {
                                "type": ["null", "string"]
                            },
                            "name": {
                                "type": ["null", "string"]
                            },
                            "priority": {
                                "type": ["null", "string"]
                            }

                        }
                    },
                    "status": {
                        "type": ["null", "string"]
                    },
                    "contacts": {
                        "type": ["null", "array"],
                        "items": {
                            "type": ["null", "object"],
                            "properties": {
                                "id": {
                                    "type": ["null", "string"]
                                },
                                "entity": {
                                    "type": ["null", "string"]
                                },
                                "name": {
                                    "type": ["null", "string"]
                                }
                            }
                        }
                    },
                    "companies": {
                        "type": ["null", "array"],
                        "items": {
                            "type": ["null", "object"],
                            "properties": {
                                "id": {
                                    "type": ["null", "string"]
                                },
                                "entity": {
                                    "type": ["null", "string"]
                                },
                                "name": {
                                    "type": ["null", "string"]
                                }
                            }
                        }
                    },
                    "won": {
                        "type": ["null", "object"],
                        "properties": {
                            "id": {
                                "type": ["null", "string"]
                            },
                            "name": {
                                "type": ["null", "string"]
                            }
                        }
                    },
                    "lost": {
                        "type": ["null", "object"],
                        "properties": {
                            "closedDate": {
                                "type": ["null", "string"]
                            },
                            "lostReason": {
                                "type": ["null", "object"],
                                "properties": {
                                    "id": {
                                        "type": ["null", "string"]
                                    },
                                    "name": {
                                        "type": ["null", "string"]
                                    }
                                }
                            }
                        }
                    },

                    "customFieldValues": {
                        "type": ["array"],
                        "items": {
                            "type": ["object"],
                            "properties": {
                                "value": {
                                    "type": ["string"]
                                },
                                "customField": {
                                    "type": ["object"],
                                    "properties": {
                                        "id": {
                                            "type": ["string"]
                                        }
                                    }
                                }
                            }
                        }
                    }
                }
            },
            "metadata": [{
                "metadata": {
                    "selected": true,
                    "table-key-properties": ["id", "status", "dateCreated"]
                },
                "breadcrumb": []
            }]
        },
        {
            "stream_alias": "moskit_users",
            "stream": "moskit_users",
            "tap_stream_id": "moskit_users",
            "schema": {
                "selected": true,
                "type": ["null", "object"],
                "properties": {
                    "id": {
                        "type": ["null", "string"]
                    },
                    "name": {
                        "type": ["null", "string"]
                    },
                    "username": {
                        "type": ["null", "string"]
                    },
                    "birth": {
                        "type": ["null", "string"]
                    },

                    "timezone": {
                        "type": ["null", "object"],
                        "properties": {
                            "id": {
                                "type": ["null", "string"]
                            },
                            "name": {
                                "type": ["null", "string"]
                            }
                        }
                    },
                    "team": {
                        "type": ["null", "object"],
                        "properties": {
                            "id": {
                                "type": ["null", "string"]
                            },
                            "entity": {
                                "type": ["null", "string"]
                            },
                            "name": {
                                "type": ["null", "string"]
                            }
                        }
                    },
                    "jobTitle": {
                        "type": ["null", "string"]
                    },
                    "levelView": {
                        "type": ["null", "string"]
                    },
                    "levelEdit": {
                        "type": ["null", "string"]
                    },
                    "levelDelete": {
                        "type": ["null", "string"]
                    },
                    "levelExport": {
                        "type": ["null", "string"]
                    },
                    "levelConfig": {
                        "type": ["null", "string"]
                    },
                    "levelBulk": {
                        "type": ["null", "string"]
                    },
                    "phones": {
                        "type": ["null", "array"],
                        "items": {
                            "type": ["null", "object"],
                            "properties": {
                                "id": {
                                    "type": ["null", "string"]
                                },
                                "entity": {
                                    "type": ["null", "string"]
                                },
                                "number": {
                                    "type": ["null", "string"]
                                }

                            }
                        }
                    },
                    "defaultPipeline": {
                        "type": ["null", "string"]
                    },
                    "defaultBoard": {
                        "type": ["null", "string"]
                    },
                    "defaultDashboard": {
                        "type": ["null", "string"]
                    }

                }
            },
            "metadata": [{
                "metadata": {
                    "selected": true,
                    "table-key-properties": ["id"]
                },
                "breadcrumb": []
            }]
        },
        {
            "stream_alias": "moskit_activities",
            "stream": "moskit_activities",
            "tap_stream_id": "moskit_activities",
            "schema": {
                "selected": true,
                "type": ["null", "object"],
                "properties": {
                    "id": {
                        "type": ["null", "string"]
                    },
                    "dateCreated": {
                        "type": ["null", "string"]
                    },
                    "doneDate": {
                        "type": ["null", "string"]
                    },
                    "dueDate": {
                        "type": ["null", "string"]
                    },
                    "duration": {
                        "type": ["null", "string"]
                    },
                    "totalDays": {
                        "type": ["null", "string"]
                    },
                    "notes": {
                        "type": ["null", "string"]
                    },
                    "title": {
                        "type": ["null", "string"]
                    },
                    "source": {
                        "type": ["null", "string"]
                    },

                    "createdBy": {
                        "type": ["null", "object"],
                        "properties": {
                            "id": {
                                "type": ["null", "string"]
                            },
                            "entity": {
                                "type": ["null", "string"]
                            },
                            "name": {
                                "type": ["null", "string"]
                            }
                        }
                    },
                    "responsible": {
                        "type": ["null", "object"],
                        "properties": {
                            "id": {
                                "type": ["null", "string"]
                            },
                            "entity": {
                                "type": ["null", "string"]
                            },
                            "name": {
                                "type": ["null", "string"]
                            }
                        }
                    },
                    "type": {
                        "type": ["null", "object"],
                        "properties": {
                            "id": {
                                "type": ["null", "string"]
                            },
                            "entity": {
                                "type": ["null", "string"]
                            },
                            "name": {
                                "type": ["null", "string"]
                            }
                        }

                    },
                    "contacts": {
                        "type": ["null", "array"],
                        "items": {
                            "type": ["null", "object"],
                            "properties": {
                                "id": {
                                    "type": ["null", "string"]
                                },
                                "entity": {
                                    "type": ["null", "string"]
                                },
                                "name": {
                                    "type": ["null", "string"]
                                }
                            }
                        }
                    },
                    "companies": {
                        "type": ["null", "array"],
                        "items": {
                            "type": ["null", "object"],
                            "properties": {
                                "id": {
                                    "type": ["null", "string"]
                                },
                                "entity": {
                                    "type": ["null", "string"]
                                },
                                "name": {
                                    "type": ["null", "string"]
                                }
                            }
                        }
                    },
                    "deals": {
                        "type": ["null", "array"],
                        "items": {
                            "type": ["null", "object"],
                            "properties": {
                                "id": {
                                    "type": ["null", "string"]
                                },
                                "entity": {
                                    "type": ["null", "string"]
                                },
                                "name": {
                                    "type": ["null", "string"]
                                }
                            }
                        }
                    },
                    "projects": {
                        "type": ["null", "array"],
                        "items": {
                            "type": ["null", "object"],
                            "properties": {
                                "id": {
                                    "type": ["null", "string"]
                                },
                                "entity": {
                                    "type": ["null", "string"]
                                },
                                "name": {
                                    "type": ["null", "string"]
                                }
                            }
                        }
                    },
                    "customFieldValues": {
                        "type": ["array"],
                        "items": {
                            "type": ["object"],
                            "properties": {
                                "value": {
                                    "type": ["string"]
                                },
                                "customField": {
                                    "type": ["object"],
                                    "properties": {
                                        "id": {
                                            "type": ["string"]
                                        },
                                        "entity": {
                                            "type": ["null", "string"]
                                        },
                                        "name": {
                                            "type": ["null", "string"]
                                        }
                                    }
                                }
                            }
                        }
                    }
                }
            },
            "metadata": [{
                "metadata": {
                    "selected": true,
                    "table-key-properties": ["id", "dateCreated"]
                },
                "breadcrumb": []
            }]
        },
        {
            "stream_alias": "moskit_companies",
            "stream": "moskit_companies",
            "tap_stream_id": "moskit_companies",
            "schema": {
                "selected": true,
                "type": ["null", "object"],
                "properties": {
                    "id": {
                        "type": ["null", "string"]
                    },
                    "name": {
                        "type": ["null", "string"]
                    },
                    "domain": {
                        "type": ["null", "string"]
                    },
                    "notes": {
                        "type": ["null", "string"]
                    },
                    "picture": {
                        "type": ["null", "string"]
                    },
                    "dateCreated": {
                        "type": ["null", "string"]
                    },
                    "projects": {
                        "type": ["null", "string"]
                    },

                    "primaryPhone": {
                        "type": ["null", "object"],
                        "properties": {
                            "id": {
                                "type": ["null", "string"]
                            },
                            "entity": {
                                "type": ["null", "string"]
                            },
                            "number": {
                                "type": ["null", "string"]
                            },
                            "type": {
                                "type": ["null", "object"],
                                "properties": {
                                    "id": {
                                        "type": ["null", "string"]
                                    },
                                    "entity": {
                                        "type": ["null", "string"]
                                    },
                                    "name": {
                                        "type": ["null", "string"]
                                    }
                                }
                            }
                        }
                    },

                    "createdBy": {
                        "type": ["null", "object"],
                        "properties": {
                            "id": {
                                "type": ["null", "string"]
                            },
                            "name": {
                                "type": ["null", "string"]
                            },

                            "entity": {
                                "type": ["null", "string"]
                            }
                        }
                    },
                    "responsible": {
                        "type": ["null", "object"],
                        "properties": {
                            "id": {
                                "type": ["null", "string"]
                            },
                            "entity": {
                                "type": ["null", "string"]
                            },
                            "name": {
                                "type": ["null", "string"]
                            }
                        }
                    },
                    "emails": {
                        "type": ["null", "array"],
                        "items": {
                            "type": ["null", "object"],
                            "properties": {
                                "id": {
                                    "type": ["null", "string"]
                                },
                                "entity": {
                                    "type": ["null", "string"]
                                },
                                "address": {
                                    "type": ["null", "string"]

                                }
                            }
                        }
                    },
                    "phones": {
                        "type": ["null", "array"],
                        "items": {
                            "type": ["null", "object"],
                            "properties": {
                                "id": {
                                    "type": ["null", "string"]
                                },
                                "entity": {
                                    "type": ["null", "string"]
                                },
                                "number": {
                                    "type": ["null", "string"]
                                },
                                "type": {
                                    "type": ["null", "object"],
                                    "properties": {
                                        "id": {
                                            "type": ["null", "string"]
                                        },
                                        "entity": {
                                            "type": ["null", "string"]
                                        },
                                        "name": {
                                            "type": ["null", "string"]
                                        }
                                    }
                                }
                            }
                        }
                    },
                    "socialProfiles": {
                        "type": ["null", "array"],
                        "items": {
                            "type": ["null", "object"],
                            "properties": {
                                "id": {
                                    "type": ["null", "string"]
                                },
                                "entity": {
                                    "type": ["null", "string"]
                                },
                                "url": {
                                    "type": ["null", "string"]
                                },
                                "type": {
                                    "type": ["null", "object"],
                                    "properties": {
                                        "id": {
                                            "type": ["null", "string"]
                                        },
                                        "entity": {
                                            "type": ["null", "string"]
                                        },
                                        "name": {
                                            "type": ["null", "string"]
                                        }
                                    }
                                }
                            }
                        }
                    },
                    "employees": {
                        "type": ["null", "array"],
                        "items": {
                            "type": ["null", "object"],
                            "properties": {
                                "id": {
                                    "type": ["null", "string"]
                                },
                                "entity": {
                                    "type": ["null", "string"]
                                },
                                "jobTitle": {
                                    "type": ["null", "string"]
                                },
                                "contact": {
                                    "type": ["null", "object"],
                                    "properties": {
                                        "id": {
                                            "type": ["null", "string"]
                                        },
                                        "entity": {
                                            "type": ["null", "string"]
                                        },
                                        "name": {
                                            "type": ["null", "string"]
                                        }

                                    }
                                },
                                "company": {
                                    "type": ["null", "object"],
                                    "properties": {
                                        "id": {
                                            "type": ["null", "string"]
                                        },
                                        "entity": {
                                            "type": ["null", "string"]
                                        },
                                        "name": {
                                            "type": ["null", "string"]
                                        }

                                    }
                                }
                            }
                        }
                    },
                    "deals": {
                        "type": ["null", "array"],
                        "items": {
                            "type": ["null", "object"],
                            "properties": {
                                "id": {
                                    "type": ["null", "string"]
                                },
                                "entity": {
                                    "type": ["null", "string"]
                                },
                                "name": {
                                    "type": ["null", "string"]

                                },
                                "status": {
                                    "type": ["null", "string"]
                                }
                            }
                        }
                    },
                    "activities": {
                        "type": ["null", "array"],
                        "items": {
                            "type": ["null", "object"],
                            "properties": {
                                "id": {
                                    "type": ["null", "string"]
                                },
                                "entity": {
                                    "type": ["null", "string"]
                                },
                                "name": {
                                    "type": ["null", "string"]

                                },
                                "dueDate": {
                                    "type": ["null", "string"]
                                }
                            }
                        }
                    },


                    "customFieldValues": {
                        "type": ["null", "array"],
                        "items": {
                            "type": ["null", "object"],
                            "properties": {
                                "id": {
                                    "type": ["null", "string"]
                                },
                                "entity": {
                                    "type": ["null", "string"]
                                },
                                "value": {
                                    "type": ["string"]
                                },
                                "customField": {
                                    "type": ["null", "object"],
                                    "properties": {
                                        "id": {
                                            "type": ["null", "string"]
                                        },
                                        "entity": {
                                            "type": ["null", "string"]
                                        },
                                        "name": {
                                            "type": ["null", "string"]
                                        },
                                        "priority": {
                                            "type": ["null", "string"]
                                        },
                                        "type": {
                                            "type": ["null", "string"]
                                        }
                                    }
                                }
                            }
                        }
                    }
                }
            },
            "metadata": [{
                "metadata": {
                    "selected": true,
                    "table-key-properties": ["id", "dateCreated"]
                },
                "breadcrumb": []
            }]
        },
        {
            "stream_alias": "moskit_contacts",
            "stream": "moskit_contacts",
            "tap_stream_id": "moskit_contacts",
            "schema": {
                "selected": true,
                "type": ["null", "object"],
                "properties": {
                    "id": {
                        "type": ["null", "string"]
                    },
                    "name": {
                        "type": ["null", "string"]
                    },
                    "primaryEmail": {
                        "type": ["null", "object"],
                        "properties": {
                            "id": {
                                "type": ["null", "string"]
                            },
                            "entity": {
                                "type": ["null", "string"]
                            },
                            "address": {
                                "type": ["null", "string"]
                            }
                        }
                    },
                    "primaryPhone": {
                        "type": ["null", "object"],
                        "properties": {
                            "id": {
                                "type": ["null", "string"]
                            },
                            "entity": {
                                "type": ["null", "string"]
                            },
                            "number": {
                                "type": ["null", "string"]
                            }
                        }
                    },
                    "notes": {
                        "type": ["null", "string"]
                    },
                    "pictures": {
                        "type": ["null", "string"]
                    },
                    "dateCreated": {
                        "type": ["null", "string"]
                    },
                    "source": {
                        "type": ["null", "string"]
                    },
                    "createdBy": {
                        "type": ["null", "object"],
                        "properties": {
                            "id": {
                                "type": ["null", "string"]
                            },
                            "entity": {
                                "type": ["null", "string"]
                            },
                            "name": {
                                "type": ["null", "string"]
                            }

                        }
                    },
                    "responsible": {
                        "type": ["null", "object"],
                        "properties": {
                            "id": {
                                "type": ["null", "string"]
                            },
                            "entity": {
                                "type": ["null", "string"]
                            },
                            "name": {
                                "type": ["null", "string"]
                            }
                        }
                    },
                    "emails": {
                        "type": ["null", "array"],
                        "items": {
                            "type": ["null", "object"],
                            "properties": {
                                "id": {
                                    "type": ["null", "string"]
                                },
                                "address": {
                                    "type": ["null", "string"]
                                },
                                "type": {
                                    "type": ["null", "object"],
                                    "properties": {
                                        "id": {
                                            "type": ["null", "string"]
                                        },
                                        "entity": {
                                            "type": ["null", "string"]
                                        },
                                        "name": {
                                            "type": ["null", "string"]
                                        }
                                    }
                                }

                            }
                        }
                    },
                    "phones": {
                        "type": ["null", "array"],
                        "items": {
                            "type": ["null", "object"],
                            "properties": {
                                "id": {
                                    "type": ["null", "string"]
                                },
                                "number": {
                                    "type": ["null", "string"]
                                },
                                "type": {
                                    "type": ["null", "object"],
                                    "properties": {
                                        "id": {
                                            "type": ["null", "string"]
                                        },
                                        "entity": {
                                            "type": ["null", "string"]
                                        },
                                        "name": {
                                            "type": ["null", "string"]
                                        }
                                    }
                                }
                            }
                        }
                    },
                    "socialProfiles": {
                        "type": ["null", "array"],
                        "items": {
                            "type": ["null", "object"],

                            "properties": {
                                "id": {
                                    "type": ["null", "string"]
                                },
                                "url": {
                                    "type": ["null", "string"]
                                }
                            }
                        }
                    },
                    "employers": {
                        "type": ["null", "array"],
                        "items": {
                            "type": ["null", "object"],
                            "properties": {
                                "id": {
                                    "type": ["null", "string"]
                                },
                                "jobTitle": {
                                    "type": ["null", "string"]
                                },
                                "contact": {
                                    "type": ["null", "object"],
                                    "properties": {
                                        "id": {
                                            "type": ["null", "string"]
                                        }
                                    }
                                },
                                "company": {
                                    "type": ["null", "object"],
                                    "properties": {
                                        "id": {
                                            "type": ["null", "string"]
                                        },
                                        "entity": {
                                            "type": ["null", "string"]
                                        },
                                        "name": {
                                            "type": ["null", "string"]
                                        }
                                    }
                                }
                            }
                        }
                    },
                    "customFieldValues": {
                        "type": ["array"],
                        "items": {
                            "type": ["object"],
                            "properties": {
                                "value": {
                                    "type": ["string"]
                                },
                                "customField": {
                                    "type": ["object"],
                                    "properties": {
                                        "id": {
                                            "type": ["string"]
                                        }
                                    }
                                }
                            }
                        }
                    }
                }
            },
            "metadata": [{
                "metadata": {
                    "selected": true,
                    "table-key-properties": ["id", "dateCreated"]
                },
                "breadcrumb": []
            }]
        }
    ]
}