{
  "streams": [
    {
      "stream_alias": "boarding_authorization_list",
      "stream": "boarding_authorization_list",
      "tap_stream_id": "boarding_authorization_list",
      "schema": {
        "selected": true,
        "type": ["null", "object"],
        "properties": {
          "CDVIAG": {
            "type": ["string", "null"]
          },
          "NRPLACACAVALO": {
            "type": ["string", "null"]
          },
          "NRPLACACARRETA": {
            "type": ["string", "null"]
          },
          "DESTINATARIO": {
            "type": ["string", "null"]
          },
          "DTPREVINI": {
            "type": ["string", "null"]
          },
          "DTPREVFIM": {
            "type": ["string", "null"]
          },
          "DTINI": {
            "type": ["string", "null"]
          },
          "DTFIM": {
            "type": ["string", "null"]
          },
          "DSCIDORIGEM": {
            "type": ["string", "null"]
          },
          "ESTADOORI": {
            "type": ["string", "null"]
          },
          "DSCIDDESTINO": {
            "type": ["string", "null"]
          },
          "ESTADODES": {
            "type": ["string", "null"]
          },
          "NRCONTROLECARGA": {
            "type": ["string", "null"]
          },
          "FLSITUACAO": {
            "type": ["string", "null"]
          },
          "SITUACAO": {
            "type": ["string", "null"]
          },
          "NRCPFMOT1": {
            "type": ["string", "null"]
          },
          "MOTORISTA1": {
            "type": ["string", "null"]
          },
          "CDOPEMISSOR": {
            "type": ["string", "null"]
          },
          "OPEMISSOR": {
            "type": ["string", "null"]
          },
          "CDCIDORIG": {
            "type": ["string", "null"]
          },
          "CDCIDDEST": {
            "type": ["string", "null"]
          },
          "cdTransp": {
            "type": ["string", "null"]
          },
          "cdProd": {
            "type": ["string", "null"]
          },
          "dtPrevista": {
            "type": ["string", "null"]
          },
          "DTINCL": {
            "type": ["string", "null"]
          },
          "date_extraction": {
            "type": ["string", "null"]
          }
        }
      },
      "metadata": [
        {
          "metadata": {
            "selected": true,
            "table-key-properties": ["CDVIAG", "date_extraction"]
          },
          "breadcrumb": []
        }
      ]
    }
  ]
}