{
    "streams": [
      {
        "stream": "twitter_insights",
        "tap_stream_id": "twitter_insights",
        "schema": {
          "type": [
            "null",
            "object"
          ],
          "properties": {
            "tweet_id": {
              "type": [
                "null",
                "string"
              ]
            },
            "date_extraction": {
              "type": [
                "null",
                "string"
              ]
            },
            "date_create": {
              "type": [
                "null",
                "string"
              ]
            },
            "text": {
              "type": [
                "null",
                "string"
              ]
            },
            "tweet": {
              "type": [
                "null",
                "object"
              ],
              "properties": {
                "like_count": {
                  "type": [
                    "null",
                    "string"
                  ]
                },
                "retweet_count": {
                  "type": [
                    "null",
                    "string"
                  ]
                },
                "quote_count": {
                  "type": [
                    "null",
                    "string"
                  ]
                },
                "reply_count": {
                  "type": [
                    "null",
                    "string"
                  ]
                },
                "impression_count": {
                  "type": [
                    "null",
                    "string"
                  ]
                }
              }
            }
          }
        },
        "metadata": [
          {
            "metadata": {
              "selected": true,
              "table-key-properties": [
                "tweet_id"
              ]
            },
            "breadcrumb": []
          }
        ]
      },
      {
        "stream": "twitter_page_insights",
        "tap_stream_id": "twitter_page_insights",
        "schema": {
          "type": [
            "null",
            "object"
          ],
          "properties": {
            "followers_count": {
              "type": [
                "null",
                "string"
              ]
            },
            "date_extraction": {
              "type": [
                "null",
                "string"
              ]
            },
            "tweet_count": {
              "type": [
                "null",
                "string"
              ]
            },
            "listed_count": {
              "type": [
                "null",
                "string"
              ]
            }
          }
        },
        "metadata": [
          {
            "metadata": {
              "selected": true,
              "table-key-properties": [
                "date_extraction"
              ]
            },
            "breadcrumb": []
          }
        ]
      }
    ]
  }