{
    "streams": [
        {
            "tap_stream_id": "bank-movement-now",
            "stream": "bank-movement-now",
            "schema": {
                "selected": true,
                "type": [
                    "null",
                    "object"
                ],
                "properties": {
                    "bankMovementId": {
                        "type": [
                            "number",
                            "null"
                        ]
                    },
                    "bankMovementAmount": {
                        "type": [
                            "number",
                            "null"
                        ]
                    },
                    "documentIdentificationId": {
                        "type": [
                            "string",
                            "null"
                        ]
                    },
                    "documentIdentificationName": {
                        "type": [
                            "string",
                            "null"
                        ]
                    },
                    "bankMovementOriginId": {
                        "type": [
                            "string",
                            "null"
                        ]
                    },
                    "bankMovementHistoricId": {
                        "type": [
                            "number",
                            "null"
                        ]
                    },
                    "bankMovementHistoricName": {
                        "type": [
                            "string",
                            "null"
                        ]
                    },
                    "bankMovementOperationId": {
                        "type": [
                            "number",
                            "null"
                        ]
                    },
                    "bankMovementOperationName": {
                        "type": [
                            "string",
                            "null"
                        ]
                    },
                    "bankMovementOperationType": {
                        "type": [
                            "string",
                            "null"
                        ]
                    },
                    "bankMovementReconcile": {
                        "type": [
                            "string",
                            "null"
                        ]
                    },
                    "bankMovementDate": {
                        "type": [
                            "string",
                            "null"
                        ]
                    },
                    "accountNumber": {
                        "type": [
                            "string",
                            "null"
                        ]
                    },
                    "companyId": {
                        "type": [
                            "number",
                            "null"
                        ]
                    },
                    "companyName": {
                        "type": [
                            "string",
                            "null"
                        ]
                    },
                    "groupCompanyId": {
                        "type": [
                            "number",
                            "null"
                        ]
                    },
                    "groupCompanyName": {
                        "type": [
                            "string",
                            "null"
                        ]
                    },
                    "holdingId": {
                        "type": [
                            "number",
                            "null"
                        ]
                    },
                    "holdingName": {
                        "type": [
                            "string",
                            "null"
                        ]
                    },
                    "subsidiaryId": {
                        "type": [
                            "number",
                            "null"
                        ]
                    },
                    "subsidiaryName": {
                        "type": [
                            "string",
                            "null"
                        ]
                    },
                    "billId": {
                        "type": [
                            "number",
                            "null"
                        ]
                    },
                    "installmentId": {
                        "type": [
                            "number",
                            "null"
                        ]
                    },
                    "creditorId": {
                        "type": [
                            "number",
                            "null"
                        ]
                    },
                    "creditorName": {
                        "type": [
                            "string",
                            "null"
                        ]
                    },
                    "clientId": {
                        "type": [
                            "number",
                            "null"
                        ]
                    },
                    "clientName": {
                        "type": [
                            "string",
                            "null"
                        ]
                    },
                    "financialCategories": {
                        "type": [
                            "array",
                            "null"
                        ],
                        "items": {
                            "type": [
                                "object",
                                "null"
                            ],
                            "properties": {
                                "costCenterId": {
                                    "type": [
                                        "number",
                                        "null"
                                    ]
                                },
                                "costCenterName": {
                                    "type": [
                                        "string",
                                        "null"
                                    ]
                                },
                                "financialCategoryId": {
                                    "type": [
                                        "string",
                                        "null"
                                    ]
                                },
                                "financialCategoryName": {
                                    "type": [
                                        "string",
                                        "null"
                                    ]
                                },
                                "financialCategoryReducer": {
                                    "type": [
                                        "string",
                                        "null"
                                    ]
                                },
                                "financialCategoryType": {
                                    "type": [
                                        "string",
                                        "null"
                                    ]
                                },
                                "financialCategoryRate": {
                                    "type": [
                                        "number",
                                        "null"
                                    ]
                                },
                                "businessAreaId": {
                                    "type": [
                                        "number",
                                        "null"
                                    ]
                                },
                                "businessAreaName": {
                                    "type": [
                                        "string",
                                        "null"
                                    ]
                                },
                                "projectId": {
                                    "type": [
                                        "number",
                                        "null"
                                    ]
                                },
                                "projectName": {
                                    "type": [
                                        "string",
                                        "null"
                                    ]
                                },
                                "businessTypeId": {
                                    "type": [
                                        "number",
                                        "null"
                                    ]
                                },
                                "businessTypeName": {
                                    "type": [
                                        "string",
                                        "null"
                                    ]
                                },
                                "companyId": {
                                    "type": [
                                        "number",
                                        "null"
                                    ]
                                },
                                "companyName": {
                                    "type": [
                                        "string",
                                        "null"
                                    ]
                                },
                                "groupCompanyId": {
                                    "type": [
                                        "number",
                                        "null"
                                    ]
                                },
                                "groupCompanyName": {
                                    "type": [
                                        "string",
                                        "null"
                                    ]
                                },
                                "holdingId": {
                                    "type": [
                                        "number",
                                        "null"
                                    ]
                                },
                                "holdingName": {
                                    "type": [
                                        "string",
                                        "null"
                                    ]
                                },
                                "subsidiaryId": {
                                    "type": [
                                        "number",
                                        "null"
                                    ]
                                },
                                "subsidiaryName": {
                                    "type": [
                                        "string",
                                        "null"
                                    ]
                                }
                            }
                        }
                    },
                    "departamentCosts": {
                        "type": [
                            "array",
                            "null"
                        ],
                        "items": {
                            "type": [
                                "object",
                                "null"
                            ],
                            "properties": {
                                "id": {
                                    "type": [
                                        "number",
                                        "null"
                                    ]
                                },
                                "name": {
                                    "type": [
                                        "string",
                                        "null"
                                    ]
                                },
                                "rate": {
                                    "type": [
                                        "number",
                                        "null"
                                    ]
                                }
                            }
                        }
                    },
                    "buldingCosts": {
                        "type": [
                            "array",
                            "null"
                        ],
                        "items": {
                            "type": [
                                "object",
                                "null"
                            ],
                            "properties": {
                                "buildingId": {
                                    "type": [
                                        "number",
                                        "null"
                                    ]
                                },
                                "name": {
                                    "type": [
                                        "string",
                                        "null"
                                    ]
                                },
                                "buildingUnitId": {
                                    "type": [
                                        "number",
                                        "null"
                                    ]
                                },
                                "buildingUnitName": {
                                    "type": [
                                        "string",
                                        "null"
                                    ]
                                },
                                "costEstimationSheetId": {
                                    "type": [
                                        "string",
                                        "null"
                                    ]
                                },
                                "costEstimationSheetName": {
                                    "type": [
                                        "string",
                                        "null"
                                    ]
                                },
                                "rate": {
                                    "type": [
                                        "number",
                                        "null"
                                    ]
                                }
                            }
                        }
                    }
                }
            },
            "metadata": [
                {
                    "metadata": {
                        "selected": true,
                        "table-key-properties": []
                    },
                    "breadcrumb": []
                }
            ]
        }
    ]
}